…
Looks like some missing values exist... are there any more?

``` r
world %>% arrange(desc(is.na(avg_temp)))
```

    ## # A tibble: 266 x 2
    ##     year avg_temp
    ##    <int>    <dbl>
    ##  1  1750     8.72
    ##  2  1751     7.98
    ##  3  1752     5.78
    ##  4  1753     8.39
    ##  5  1754     8.47
    ##  6  1755     8.36
    ##  7  1756     8.85
    ##  8  1757     9.02
    ##  9  1758     6.74
    ## 10  1759     7.99
    ## # ... with 256 more rows

``` r
miami %>% arrange(desc(is.na(avg_temp)))
```

    ## # A tibble: 256 x 4
    ##     year city  country       avg_temp
    ##    <int> <chr> <chr>            <dbl>
    ##  1  1761 Miami United States       NA
    ##  2  1762 Miami United States       NA
    ##  3  1763 Miami United States       NA
    ##  4  1764 Miami United States       NA
    ##  5  1765 Miami United States       NA
    ##  6  1766 Miami United States       NA
    ##  7  1767 Miami United States       NA
    ##  8  1772 Miami United States       NA
    ##  9  1774 Miami United States       NA
    ## 10  1778 Miami United States       NA
    ## # ... with 246 more rows
…
